Nayan’s Blog - NBA Salary Prediction
…
Rows: 199 Columns: 28
── Column specification ────────────────────────────────────────────────────────
Delimiter: ","
chr  (1): NAME
dbl (27): CONTRACT_START, CONTRACT_END, AVG_SALARY, AGE, GP, W, L, MIN, PTS,...

ℹ Use `spec()` to retrieve the full column specification for this data.
ℹ Specify the column types or set `show_col_types = FALSE` to quiet this message.

Code

df

# A tibble: 199 × 28
   NAME  CONTR…¹ CONTR…² AVG_S…³   AGE    GP     W     L   MIN   PTS   FGM   FGA
   <chr>   <dbl>   <dbl>   <dbl> <dbl> <dbl> <dbl> <dbl> <dbl> <dbl> <dbl> <dbl>
 1 Wesl…    2019    2020  2.56e6    32    69    27    42  2091   840   279   698
 2 Broo…    2015    2017  2.12e7    27    72    34    38  2100  1236   506   987
 3 DeAn…    2011    2014  1.08e7    22    80    31    49  2047   566   234   341
 4 Mark…    2015    2018  8.14e6    25    82    39    43  2581  1258   512  1100
 5 Dwig…    2018    2019  1.34e7    32    81    35    46  2463  1347   506   911
 6 Aust…    2015    2016  7.06e6    22    76    46    30  1563   530   203   496
 7 Wayn…    2016    2017  6.14e6    28    76    18    58  1615   586   218   561
 8 JaMy…    2019    2020  4.77e6    29    65    31    34  1371   611   230   476
 9 Kyle…    2015    2018  4.05e6    25    51    15    36   824   294   119   242
10 Trev…    2014    2017  8   e6    28    77    41    36  2723  1107   389   853
# … with 189 more rows, 16 more variables: `FG%` <dbl>, `3PM` <dbl>,
#   `3PA` <dbl>, `3P%` <dbl>, FTM <dbl>, FTA <dbl>, `FT%` <dbl>, OREB <dbl>,
#   DREB <dbl>, REB <dbl>, AST <dbl>, TOV <dbl>, STL <dbl>, BLK <dbl>,
#   PF <dbl>, `+/-` <dbl>, and abbreviated variable names ¹​CONTRACT_START,
#   ²​CONTRACT_END, ³​AVG_SALARY
…
